{
    "1": 1,
    " ": 25827,
    "e": 12868,
    "o": 9215,
    "t": 8504,
    "a": 7745,
    "s": 6532,
    "n": 6270,
    "h": 6129,
    "i": 6057,
    "r": 5697,
    "l": 4830,
    "u": 3937,
    "d": 3902,
    "y": 3295,
    "m": 3193,
    "w": 2429,
    "g": 2279,
    ".": 2218,
    "f": 1900,
    ",": 1813,
    "c": 1808,
    "b": 1699,
    "p": 1363,
    "’": 1260,
    "v": 1154,
    "k": 1152,
    "I": 1102,
    "T": 440,
    "?": 406,
    "!": 292,
    "W": 280,
    "O": 252,
    "R": 251,
    "H": 228,
    "A": 220,
    "M": 213,
    "S": 208,
    "Y": 202,
    "G": 163,
    "N": 150,
    "B": 146,
    "L": 135,
    "C": 134,
    "(": 131,
    ")": 131,
    "P": 125,
    "E": 121,
    "j": 119,
    "—": 98,
    "D": 91,
    "J": 90,
    "“": 83,
    "”": 83,
    "x": 81,
    "F": 68,
    "-": 49,
    "q": 47,
    "z": 39,
    "V": 34,
    "U": 34,
    "'": 25,
    ":": 12,
    "=": 9,
    ";": 6,
    "Q": 5,
    "K": 4
}